wave.vcd
$date
     Jul 10, 2023       11:45:45
$end

$version
 SystemC 2.3.3-Accellera --- Mar  6 2023 13:32:03
$end

$timescale
     1 ns
$end

$scope module SystemC $end
$var wire    1  aaaaa  clock       $end
$var wire    1  aaaab  router|dataOutS|5       $end
$var wire    1  aaaac  router|dataOutS|4       $end
$var wire    1  aaaad  router|dataOutS|3       $end
$var wire    1  aaaae  router|dataOutS|2       $end
$var wire    1  aaaaf  router|dataOutS|1       $end
$var wire    1  aaaag  router|dataOutS|0       $end
$var wire    1  aaaah  router|dataInN1|5       $end
$var wire    1  aaaai  router|dataInN1|4       $end
$var wire    1  aaaaj  router|dataInN1|3       $end
$var wire    1  aaaak  router|dataInN1|2       $end
$var wire    1  aaaal  router|dataInN1|1       $end
$var wire    1  aaaam  router|dataInN1|0       $end
$upscope $end
$enddefinitions  $end

$comment
All initial values are dumped below at time 0 sec = 0 timescale units.
$end

$dumpvars
1aaaaa
0aaaab
0aaaac
0aaaad
0aaaae
0aaaaf
0aaaag
1aaaah
0aaaai
0aaaaj
0aaaak
0aaaal
1aaaam
$end

#50
0aaaaa

#100
1aaaaa

#150
0aaaaa

#200
1aaaaa

#250
0aaaaa

#300
1aaaaa

#350
0aaaaa

#400
1aaaaa
1aaaab
1aaaag

#450
0aaaaa

#500
1aaaaa
0aaaab
1aaaaf

#550
0aaaaa
1aaaad
1aaaae
0aaaaf
0aaaag

#600
1aaaaa
0aaaad
1aaaag

#650
0aaaaa
1aaaad
0aaaae
1aaaaf
0aaaag

#700
1aaaaa
0aaaad
1aaaae
0aaaaf

#750
0aaaaa
1aaaad
0aaaae

#800
1aaaaa
1aaaac
0aaaad

#850
0aaaaa
0aaaac

